<svg width="16" height="16" viewBox="0 0 16 16" fill="none" xmlns="http://www.w3.org/2000/svg">
<rect x="0.5" y="0.5" width="15" height="15" stroke="#858587"/>
<path d="M8.5 4.44444V11.5556" stroke="#858587" stroke-width="0.888889" stroke-linecap="square"/>
<path d="M12 8H5" stroke="#858587" stroke-width="0.888889" stroke-linecap="square"/>
</svg>
