<svg width="25" height="15" viewBox="0 0 25 15" fill="none" xmlns="http://www.w3.org/2000/svg">
<path d="M0 7.63494H23.3082" stroke="#FF5543" stroke-width="2"/>
<path d="M18 0.826172L23.4661 7.24301L18 13.6599" stroke="#FF5543" stroke-width="2"/>
</svg>
